<?xml version="1.0" encoding="UTF-8" standalone="no"?>
<svg
   width="16"
   viewBox="0 0 16 16"
   height="16"
   id="svg4388"
   version="1.1"
   inkscape:version="1.1.1 (3bf5ae0d25, 2021-09-20)"
   sodipodi:docname="doom-one-angle-down.svg"
   xmlns:inkscape="http://www.inkscape.org/namespaces/inkscape"
   xmlns:sodipodi="http://sodipodi.sourceforge.net/DTD/sodipodi-0.dtd"
   xmlns="http://www.w3.org/2000/svg"
   xmlns:svg="http://www.w3.org/2000/svg"
   xmlns:rdf="http://www.w3.org/1999/02/22-rdf-syntax-ns#"
   xmlns:cc="http://creativecommons.org/ns#"
   xmlns:dc="http://purl.org/dc/elements/1.1/">
  <metadata
     id="metadata4398">
    <rdf:RDF>
      <cc:Work
         rdf:about="">
        <dc:format>image/svg+xml</dc:format>
        <dc:type
           rdf:resource="http://purl.org/dc/dcmitype/StillImage" />
      </cc:Work>
    </rdf:RDF>
  </metadata>
  <sodipodi:namedview
     pagecolor="#ffffff"
     bordercolor="#666666"
     borderopacity="1"
     objecttolerance="10"
     gridtolerance="10"
     guidetolerance="10"
     inkscape:pageopacity="0"
     inkscape:pageshadow="2"
     inkscape:window-width="1920"
     inkscape:window-height="1080"
     id="namedview4396"
     showgrid="false"
     inkscape:zoom="43.875"
     inkscape:cx="3.6809117"
     inkscape:cy="8.011396"
     inkscape:window-x="1920"
     inkscape:window-y="0"
     inkscape:window-maximized="1"
     inkscape:current-layer="svg4388"
     inkscape:pagecheckerboard="0" />
  <defs
     id="defs4390" />
  <g
     style="fill:#b58900;fill-opacity:1"
     transform="matrix(-1.16361 0 0 .74817 227.93897 -555.37314)"
     id="g4392">
    <path
       style="color:#bebebe;fill:#a9a1e1;fill-opacity:1"
       d="m 195.03,751 0,1 c -9.1e-4,0.0111 5.9e-4,0.021 -9e-5,0.0312 -0.0112,0.25496 -0.12835,0.50994 -0.31251,0.6875 l -5.7188,6.2977 -5.7188,-6.2977 c -0.18821,-0.1881 -0.28121,-0.45346 -0.28122,-0.71875 l 0,-1 1,0 c 0.26531,7e-5 0.53059,0.0931 0.71873,0.28131 l 4.2812,4.829 4.2813,-4.829 c 0.19464,-0.21073 0.46925,-0.30315 0.74998,-0.2813 z"
       id="path4394" />
  </g>
</svg>
